{
  "userdefinedName":true,
  "columns":[
    {
      "name":"article",
      "boAttrId":"uid{Khi5.Aj8AVwwBaIZaBUIaXlzJ}",
      "width":173,
      "position":0,
      "selected":true
    },
    {
      "name":"price",
      "boAttrId":"uid{Khi5.9dTVY27oKuuGT67c9Lm2}",
      "width":83,
      "position":1,
      "selected":true
    },
    {
      "name":"quantity",
      "boAttrId":"uid{Khi5.1sJUnkeLZacxxUIoePiC}",
      "width":68,
      "position":2,
      "selected":true
    },
    {
      "boAttrId":"uid{Khi5.pZW1i25UoMfCWzPaSv1t}",
      "width":107,
      "position":3,
      "selected":true
    },
    {
      "boAttrId":"uid{Khi5.ZEKodh3wF1l2uNUGYxGd}",
      "width":200,
      "position":4,
      "selected":true
    },
    {
      "boAttrId":"uid{Khi5.3iHXlDCb4tSnFuvYdOg2}",
      "width":66,
      "position":5,
      "selected":true
    }
  ],
  "sideviewMenuWidth":200
}